Milestone Report
…
===============================================================================

3. How many unique words do you need in a frequency sorted dictionary to cover 50% of all word instances in the language? 90%?

corpus_words <- left_join(IDCounts, TotalWords)

## Joining, by = "id"

corpus_words

## Source: local data frame [366,478 x 4]
## Groups: id [?]
## 
##         id   word     n   total
##      <chr>  <chr> <int>   <int>
## 1  Twitter   love 21309 2397206
## 2  Twitter    day 18514 2397206
## 3    Blogs   time 18212 2769112
## 4  Twitter     rt 17985 2397206
## 5  Twitter   time 15185 2397206
## 6  Twitter    lol 14268 2397206
## 7    Blogs people 12194 2769112
## 8     News   time 11674 3082847
## 9  Twitter people 10508 2397206
## 10   Blogs    day 10397 2769112
## # ... with 366,468 more rows
…
